CA3/ALUTester984011772/ALU.vcd
$date
2025-05-26T10:59+0000
$end
$version
0.2
$end
$comment

$end
$timescale 1ns  $end
$scope module ALU $end
 $var wire 16 ! _GEN_2 $end
 $var wire 1 " _T $end
 $var wire 3 # io_aluOp $end
 $var wire 16 $ _GEN_5 $end
 $var wire 16 % io_b $end
 $var wire 16 & _GEN_1 $end
 $var wire 16 ' _GEN_4 $end
 $var wire 1 ( clock $end
 $var wire 16 ) io_result $end
 $var wire 16 * _GEN_6 $end
 $var wire 15 + _GEN_0 $end
 $var wire 16 , io_a $end
 $var wire 1 - reset $end
 $var wire 16 . _GEN_3 $end
$upscope $end
$enddefinitions $end
$dumpvars
b0000000000000000 $
b0000000000000000 %
b000 #
0-
b0000000000000000 ,
b0000000000000000 .
b0000000000000000 &
0(
b0000000000000000 '
0"
b0000000000000000 )
b0000000000000000 !
b000000000000000 +
b0000000000000000 *
$end
#0
1-
1"
#1
1(
#6
0(
#11
1(
#16
0(
#21
1(
#26
0(
#31
1(
#36
0(
#41
1(
#46
0-
b0000000000000101 %
0(
b0000000000001100 ,
b0000000000001100 )
#51
1(
#56
0"
b001 #
b0000000000010001 *
0(
b0000000000010001 )
#61
1(
#66
b010 #
b0000000000000111 *
b0000000000000111 $
0(
b0000000000000111 )
#71
1(
#76
b011 #
b0000000000000100 *
b0000000000000100 '
b0000000000000100 $
0(
b0000000000000100 )
#81
1(
#86
b0000000000001101 .
b100 #
b0000000000001101 *
b0000000000001101 '
b0000000000001101 $
0(
b0000000000001101 )
#91
1(
#96
b0000000000001001 !
b0000000000001001 .
b101 #
b0000000000001001 *
b0000000000001001 '
b0000000000001001 $
0(
b0000000000001001 )
#101
1(
#106
b0000000000000101 !
b0000000000000101 .
b0000000000000101 &
b110 #
b0000000000000101 *
b0000000000000101 '
b0000000000000101 $
0(
b0000000000000101 )
#111
1(
#116
b0000000000000110 !
b0000000000000110 .
b0000000000000110 &
b111 #
b0000000000000110 *
b0000000000000110 '
b0000000000000110 $
b000000000000110 +
0(
b0000000000000110 )
